{
  "id": 0,
  "category": {
    "id": 1,
    "name": "string"
  },
  "name": "none",
  "photoUrls": [
    "string"
  ],
  "tags": [
    {
      "id": 0,
      "name": "string"
    }
  ],
  "status": "none"
}
